\version "2.12.3"

\parallelMusic #'(pianoRH pianoLH) {

%%%piano music starts at bar 74
  R1*73 |
  R1*73 |
  
				%74
  g16( a g fis g d b' a g4) r |
  <g g'>4 r r2 |
} 

%%%pianoRH = {
%%%
%%%}
%%%
%%%pianoRH = {
%%%
%%%}